-80 -48 -24 816
-72 88 -24 -32 744
-48 8 -48 -56 800
-80 -24 16 -56 -64 -40 -56 600
-16 968
32 -40 -56 840
32 -72 -8 -56 -32 -16 8 -32 -72 592
-32 -16 192 -80 640
-16 8 -32 40 -40 816
-8 40 -56 56 -8 784
-40 -8 -32 -8 872
-64 -24 8 -72 -64 8 -24 -24 640
48 -24 -72 824
-40 -40 -56 8 -32 -8 -24 -72 648
-56 -8 -72 -80 -16 720
-16 -8 104 -48 56 -40 -40 624
-16 -48 -40 -40 816
-72 56 -48 792
-80 904
-8 8 -48 -56 -64 -16 744
-40 -16 64 -80 -72 680
-8 -72 896
-72 -16 -80 -56 -32 -16 -8 -56 592
